module gitlab.com/farkhutdinov/todo-app

go 1.15

require (
	github.com/dgrijalva/jwt-go v3.2.0+incompatible
	github.com/fsnotify/fsnotify v1.4.9 // indirect
	github.com/gin-gonic/gin v1.6.3
	github.com/go-playground/validator/v10 v10.4.1 // indirect
	github.com/golang/protobuf v1.4.3 // indirect
	github.com/jmoiron/sqlx v1.3.1
	github.com/joho/godotenv v1.3.0
	github.com/json-iterator/go v1.1.10 // indirect
	github.com/leodido/go-urn v1.2.1 // indirect
	github.com/lib/pq v1.2.0
	github.com/magefile/mage v1.11.0 // indirect
	github.com/magiconair/properties v1.8.4 // indirect
	github.com/mitchellh/mapstructure v1.4.1 // indirect
	github.com/pelletier/go-toml v1.8.1 // indirect
	github.com/sirupsen/logrus v1.8.0
	github.com/spf13/afero v1.5.1 // indirect
	github.com/spf13/cast v1.3.1 // indirect
	github.com/spf13/jwalterweatherman v1.1.0 // indirect
	github.com/spf13/pflag v1.0.5 // indirect
	github.com/spf13/viper v1.7.1
	github.com/ugorji/go v1.2.4 // indirect
	golang.org/x/crypto v0.0.0-20201221181555-eec23a3978ad // indirect
	golang.org/x/sys v0.0.0-20210225134936-a50acf3fe073 // indirect
	golang.org/x/text v0.3.5 // indirect
	google.golang.org/protobuf v1.25.0 // indirect
	gopkg.in/ini.v1 v1.62.0 // indirect
	gopkg.in/yaml.v2 v2.4.0 // indirect
)
